{"text": "Waiting for S4\ufeff", "time": "33 minutes ago", "author": "pawan Kalyan", "cid": "UgznK4JF4FQvfqVGWbB4AaABAg"}
{"text": "Extraordinary\ufeff", "time": "4 hours ago", "author": "Shaik Yakub", "cid": "Ugy6OoyC_pIh4_qlx4B4AaABAg"}
{"text": "universal hero\ufeff", "time": "20 hours ago", "author": "Haritha Konghod", "cid": "Ugxb_ueOFCr0SlVyt1h4AaABAg"}
{"text": "It's just over action\ufeff", "time": "2 days ago", "author": "Karthik P", "cid": "UgyQa9cCZ4qke3L25BV4AaABAg"}
{"text": "Pitchi puku dialogue\ufeff", "time": "2 days ago", "author": "Karthik P", "cid": "UgxtGbKckmw9IQ0O5vZ4AaABAg"}
{"text": "My fav sean surya sir love uu lott\ufeff", "time": "2 days ago", "author": "Ranjini Raj", "cid": "Ugz0z2MGyLouKVIM7q14AaABAg"}
{"text": "yadav\ufeff", "time": "3 days ago", "author": "my village show Anatharam Prashanth", "cid": "Ugz3gFQpYmgRBZeilbd4AaABAg"}
{"text": "super\ufeff", "time": "5 days ago", "author": "Mukesh Madipeddi Mukesh Madipeddi", "cid": "UgxCkmeW6J_8hjvp5zp4AaABAg"}
{"text": "Super suriya movies love it\ufeff", "time": "1 week ago", "author": "Sanju Yathin", "cid": "Ugz0OsFqaZE5hdbC1eN4AaABAg"}
{"text": "Indian policies  super\ufeff", "time": "1 week ago", "author": "Rakesh E rakesh", "cid": "Ugyal206de0DKeepZxt4AaABAg"}
{"text": "Universal hero\ufeff", "time": "1 week ago", "author": "anil kumar", "cid": "UgwFvYMS9v-dqkbC2VN4AaABAg"}
{"text": "S1 S2 S3 moives super Hits\ufeff", "time": "1 week ago", "author": "Ravi Teja", "cid": "UgyXurKzhPelr7NvyoZ4AaABAg"}
{"text": "Jagan\ufeff", "time": "1 week ago", "author": "Shesha Reddy", "cid": "Ugx9Ei5jz2XkhZ-nY914AaABAg"}
{"text": "Super ....\ufeff", "time": "1 week ago", "author": "BASANAGOUDA BIRADAR", "cid": "UgxIL_8rzdqC-6wTnHV4AaABAg"}
{"text": "Pppuuii\ufeff", "time": "1 week ago", "author": "Karumuri Ramakrishna", "cid": "UgwiXysr7TX9HXO1Ezp4AaABAg"}
{"text": "Super surya\ufeff", "time": "2 weeks ago", "author": "Arun Arun", "cid": "UgwrbOyDua658LATk-h4AaABAg"}
{"text": "Arun Arun \ud83d\ude0a \u0c06\u0c30 \u0c06\u0c30\ufeff", "time": "1 week ago", "author": "teja smiley", "cid": "UgwrbOyDua658LATk-h4AaABAg.8j7887BvdKJ8jDCtQo_m4_"}
{"text": "Arun Arun\ufeff", "time": "5 days ago", "author": "Vengal Naidu", "cid": "UgwrbOyDua658LATk-h4AaABAg.8j7887BvdKJ8jV-sAnIZmS"}
{"text": "Thanks  for keeping\ufeff", "time": "2 weeks ago", "author": "Sheaker Reddy", "cid": "UgxKiAr3CamFk0dGzfl4AaABAg"}
{"text": "Upload this movie in Tamil\ufeff", "time": "2 weeks ago", "author": "Vignesh Reddy Janga", "cid": "Ugz7_FnxTC9HQA3ssI94AaABAg"}
{"text": "nice picture Surya garu\ufeff", "time": "2 weeks ago", "author": "Sathish Kumar Benhin", "cid": "UgwCGk09JLGv65B1cpN4AaABAg"}
{"text": "Super surya\ufeff", "time": "3 weeks ago", "author": "ch.paramesh war", "cid": "UgxMdUcaRKok-9uly7l4AaABAg"}
{"text": "gho\ufeff", "time": "3 weeks ago", "author": "Rebelstat Sreenath", "cid": "UgwY7B_JSgLJcTJ2KBN4AaABAg"}
{"text": "singam. 4 coming soon\ufeff", "time": "3 weeks ago", "author": "Boya Santhu", "cid": "UgySY5L1IH9qbq3ALtx4AaABAg"}
{"text": "Super scene\ufeff", "time": "3 weeks ago", "author": "Babbi Kolla", "cid": "Ugw6ue6X1h5npxYPIMZ4AaABAg"}
{"text": "Super action surya sir\ufeff", "time": "3 weeks ago", "author": "Sudheer B", "cid": "UgzgnPObKENbuZSqDGF4AaABAg"}
{"text": "Super\ufeff", "time": "3 weeks ago", "author": "Shiva Goud", "cid": "Ugwc4A8F65eO5zz8y5V4AaABAg"}
{"text": "Open the gate for the universal cop\ud83d\ude4f\ud83c\udffb\ud83d\udc4c\ud83c\udffb\ud83d\udc4c\ud83c\udffb\ufeff", "time": "3 weeks ago", "author": "Ajay Kalva", "cid": "UgzUeMB4h8AKVRoylJF4AaABAg"}
{"text": "in real indian police can't arrest people who run away or political criminals but surya movies very funny to see\ufeff", "time": "4 weeks ago", "author": "indian indian", "cid": "Ugy8cN-EvLV5D3i9XCF4AaABAg"}
{"text": "Whiting for singam 4\ufeff", "time": "4 weeks ago", "author": "Bilal razvi", "cid": "UgwaVGNBy_4tZcqlxUR4AaABAg"}
{"text": "It's amazing\ufeff", "time": "4 weeks ago", "author": "Madhu Boguma", "cid": "UgydzOd1MvCjHVfby954AaABAg"}
{"text": "Azeez Bhaya\ufeff", "time": "4 weeks ago", "author": "Azeez Shaik", "cid": "UgwV_BG5o8L88y0epht4AaABAg"}
{"text": "S o\ufeff", "time": "4 weeks ago", "author": "NY Ayyappa", "cid": "UgxrnLIkQLrLkaNaPyd4AaABAg"}
{"text": "Surya super\ufeff", "time": "4 weeks ago", "author": "K,jaanu K,gopi", "cid": "UgzumtUdIjyTgpbUWiN4AaABAg"}
{"text": "K,jaanu K,gopi\ufeff", "time": "1 week ago", "author": "Pamu Nagesh", "cid": "UgzumtUdIjyTgpbUWiN4AaABAg.8iWeCvXDoR08jJn9n0pjsl"}
{"text": "not bad\ufeff", "time": "4 weeks ago", "author": "Gvr Yadav venkateswarlu", "cid": "Ugygwd7mYv-Njmttry14AaABAg"}
{"text": "Waiting for singam 4\ufeff", "time": "1 month ago", "author": "sannapa mahesh", "cid": "UgwTCHdVPUMmGLstBNp4AaABAg"}
{"text": "All the Indian police will maintain this type of duty INDIA will like devoleped country\ufeff", "time": "1 month ago", "author": "Chukka Sreenu", "cid": "UgwGKc0veGUX_lGEGN54AaABAg"}
{"text": "Surya.garu.meeru.supar.sar.iloveyou.\ud83d\udc8b\ud83d\udc8b\ud83d\udc8b\ud83d\udc98\ud83d\udc98\ud83d\udc4c\ud83d\udc4c\ud83d\udc4d\ud83d\udc4d\ufeff", "time": "1 month ago", "author": "Monica Valdez", "cid": "Ugwh7SBaymK0xUfzFDZ4AaABAg"}
{"text": "ru89\ufeff", "time": "1 month ago", "author": "Bhimmanna G Gali", "cid": "UgxfeyALB2Kl-tjTysB4AaABAg"}
{"text": "super\ufeff", "time": "1 month ago", "author": "Srikanth Reddy", "cid": "UgyDmrLaAJT3gw7Ea-Z4AaABAg"}
{"text": "hai\ufeff", "time": "1 month ago", "author": "Ramesh Sss", "cid": "UgxuuYMlO2jaDY_5bb54AaABAg"}
{"text": "Waiting for s4\ufeff", "time": "1 month ago", "author": "srinivas bellamkonda", "cid": "UgzpEhedDizC9ICAgC14AaABAg"}
{"text": "Lol\ufeff", "time": "1 month ago", "author": "Nithin Reddy", "cid": "UgyOqf4sVtatenTWMBZ4AaABAg"}
{"text": "Nithin Reddy laxman\ufeff", "time": "3 weeks ago", "author": "Shanthikumar Sarangishanthikumar", "cid": "UgyOqf4sVtatenTWMBZ4AaABAg.8iBi3f_YKuj8idaNQ3JP0b"}
{"text": "superrrrrrr\ufeff", "time": "1 month ago", "author": "k sandhya", "cid": "UgzfzEN5-Cj2AWvlH254AaABAg"}
{"text": "Excellent surya\ufeff", "time": "1 month ago", "author": "nani harish", "cid": "UgzKL8hCDs78thhvqiZ4AaABAg"}
{"text": "Supper villan\ufeff", "time": "1 month ago", "author": "J. M. SRININIVASULU Naidu", "cid": "UgzMEUMHkhq6ecB1_pJ4AaABAg"}
{"text": "J. M. SRININIVASULU Njhkjmhnvjhnjnaidu\ufeff", "time": "2 weeks ago", "author": "rajagopal mavuri", "cid": "UgzMEUMHkhq6ecB1_pJ4AaABAg.8hqItkU-1k78j07cljOiV4"}
{"text": "super\ufeff", "time": "1 month ago", "author": "aenugula madhu", "cid": "UgwmBbYMab8Vwr0aCj14AaABAg"}
{"text": "keka\ufeff", "time": "1 month ago", "author": "Chandra k", "cid": "UgwY7OA3-ved0R6rqDh4AaABAg"}
{"text": "weating for singam4\ufeff", "time": "1 month ago", "author": "mahendhar gujjeti", "cid": "UgxjXaYYVTbviTyva3N4AaABAg"}
{"text": "mahendhar gujjeti god movie vedio\ufeff", "time": "6 days ago", "author": "Pavan Kumar", "cid": "UgxjXaYYVTbviTyva3N4AaABAg.8h_oURD77g78jSNiI4STaM"}
{"text": "Murphy Murthy\ufeff", "time": "2 months ago", "author": "Murthy Murthy", "cid": "Ugx_M_EcmgpYWFZa1s94AaABAg"}
{"text": "Superb goosebumps scene\ufeff", "time": "2 months ago", "author": "Rajsekhar Iragavarapu", "cid": "UgxOFneuxBPIMQyZi7J4AaABAg"}
{"text": "Singam 3\ufeff", "time": "2 months ago", "author": "Panchadarla Rajesh", "cid": "UgxFeN9-o_Ik7W8w2R14AaABAg"}
{"text": "Super ..surya\ufeff", "time": "2 months ago", "author": "HIGH TEACH", "cid": "UgxA-JgYEGJwcakCMH54AaABAg"}
{"text": "Surya awesome\ufeff", "time": "2 months ago", "author": "Anusha Bandaru", "cid": "UgxOG5XmqSf2EiPg_QN4AaABAg"}
